main.c:67:5:main	8	static
main.c:115:6:SystemClock_Config	96	static
main.c:159:13:MX_ADC1_Init	48	static
main.c:222:13:MX_GPIO_Init	40	static
main.c:243:6:HAL_ADC_ConvCpltCallback	16	static
main.c:253:6:Error_Handler	4	static
